<svg width="32" height="32" viewBox="0 0 32 32" fill="none" xmlns="http://www.w3.org/2000/svg">
<path d="M26.6663 30.6667V25.3333C26.6663 23.9188 26.1044 22.5623 25.1042 21.5621C24.104 20.5619 22.7475 20 21.333 20H10.6663C9.25185 20 7.8953 20.5619 6.8951 21.5621C5.89491 22.5623 5.33301 23.9188 5.33301 25.3333V30.6667" stroke="#D22D2D" stroke-width="2" stroke-linecap="round" stroke-linejoin="round"/>
<path d="M16.0003 14.6667C18.9458 14.6667 21.3337 12.2789 21.3337 9.33333C21.3337 6.38781 18.9458 4 16.0003 4C13.0548 4 10.667 6.38781 10.667 9.33333C10.667 12.2789 13.0548 14.6667 16.0003 14.6667Z" stroke="#D22D2D" stroke-width="2" stroke-linecap="round" stroke-linejoin="round"/>
</svg>
