<svg width="22" height="18" viewBox="0 0 22 18" fill="none" xmlns="http://www.w3.org/2000/svg">
<path fill-rule="evenodd" clip-rule="evenodd" d="M22 2.11626C21.1912 2.47557 20.3208 2.71755 19.4078 2.82681C20.3398 2.26805 21.0555 1.38371 21.3921 0.329976C20.521 0.847674 19.5538 1.22239 18.5264 1.4255C17.703 0.548497 16.529 0 15.2318 0C12.7393 0 10.7184 2.02093 10.7184 4.51336C10.7184 4.86681 10.7587 5.21145 10.8357 5.54216C7.08426 5.35444 3.75882 3.55716 1.53256 0.826411C1.14392 1.49297 0.921739 2.26805 0.921739 3.0952C0.921739 4.66076 1.71735 6.04227 2.92947 6.85182C2.18885 6.82835 1.4937 6.62523 0.884339 6.28718V6.34364C0.884339 8.53103 2.4411 10.3547 4.50456 10.7705C4.12619 10.8731 3.72728 10.9289 3.31591 10.9289C3.0248 10.9289 2.74175 10.9003 2.46603 10.8475C3.0402 12.6404 4.70769 13.9456 6.68242 13.9823C5.13812 15.1922 3.19199 15.9145 1.07719 15.9145C0.712018 15.9145 0.35271 15.8932 0 15.8507C1.99747 17.131 4.36964 17.8789 6.91854 17.8789C15.2201 17.8789 19.7598 11.0015 19.7598 5.03766C19.7598 4.84187 19.7562 4.64683 19.7466 4.45397C20.6295 3.81602 21.395 3.02113 22 2.11626Z" fill="#828282"/>
</svg>
