<svg width="44" height="41" viewBox="0 0 44 41" fill="none" xmlns="http://www.w3.org/2000/svg">
<path d="M2.46387 36.7842L2.55176 37.2383L2.66895 36.7598L3.93848 32.7168H4.43652L5.69141 36.7256L5.82812 37.2822L5.94043 36.7695L7.02441 32.7168H7.62988L6.0918 38H5.59375L4.23633 33.8105L4.17285 33.5225L4.10938 33.8154L2.77637 38H2.27832L0.745117 32.7168H1.3457L2.46387 36.7842ZM9.31934 33.6104C9.51139 33.2946 9.75716 33.0505 10.0566 32.8779C10.3561 32.7054 10.6833 32.6191 11.0381 32.6191C11.6045 32.6191 12.026 32.7786 12.3027 33.0977C12.5794 33.4167 12.7194 33.8952 12.7227 34.5332V38H12.1416V34.5283C12.1383 34.0563 12.0374 33.7048 11.8389 33.4736C11.6436 33.2425 11.3294 33.127 10.8965 33.127C10.5352 33.127 10.2145 33.2409 9.93457 33.4688C9.65788 33.6934 9.4528 33.9977 9.31934 34.3818V38H8.73828V30.5H9.31934V33.6104ZM17.5615 38C17.5029 37.834 17.4655 37.5882 17.4492 37.2627C17.2441 37.5296 16.9821 37.7363 16.6631 37.8828C16.3473 38.026 16.012 38.0977 15.6572 38.0977C15.1494 38.0977 14.7376 37.9561 14.4219 37.6729C14.1094 37.3896 13.9531 37.0316 13.9531 36.5986C13.9531 36.0843 14.1663 35.6774 14.5928 35.3779C15.0225 35.0785 15.6198 34.9287 16.3848 34.9287H17.4443V34.3281C17.4443 33.9505 17.3271 33.6543 17.0928 33.4395C16.8617 33.2214 16.5231 33.1123 16.0771 33.1123C15.6702 33.1123 15.3333 33.2165 15.0664 33.4248C14.7995 33.6331 14.666 33.8838 14.666 34.1768L14.0801 34.1719C14.0801 33.752 14.2754 33.389 14.666 33.083C15.0566 32.7738 15.5368 32.6191 16.1064 32.6191C16.6956 32.6191 17.1595 32.7673 17.498 33.0635C17.8398 33.3564 18.0156 33.7666 18.0254 34.2939V36.7939C18.0254 37.305 18.0791 37.6875 18.1865 37.9414V38H17.5615ZM15.7256 37.5801C16.1162 37.5801 16.4645 37.4857 16.7705 37.2969C17.0798 37.1081 17.3044 36.8558 17.4443 36.54V35.3779H16.3994C15.8167 35.3844 15.361 35.4919 15.0322 35.7002C14.7035 35.9053 14.5391 36.1885 14.5391 36.5498C14.5391 36.846 14.6481 37.0918 14.8662 37.2871C15.0876 37.4824 15.374 37.5801 15.7256 37.5801ZM20.4961 31.3643V32.7168H21.5898V33.1953H20.4961V36.7158C20.4961 37.0088 20.5482 37.2269 20.6523 37.3701C20.7598 37.5133 20.9372 37.585 21.1846 37.585C21.2822 37.585 21.4401 37.5687 21.6582 37.5361L21.6826 38.0146C21.5296 38.07 21.3213 38.0977 21.0576 38.0977C20.6572 38.0977 20.3659 37.9821 20.1836 37.751C20.0013 37.5166 19.9102 37.1732 19.9102 36.7207V33.1953H18.9385V32.7168H19.9102V31.3643H20.4961ZM25.9648 36.6572C25.9648 36.3675 25.8477 36.1348 25.6133 35.959C25.3822 35.7832 25.0322 35.6465 24.5635 35.5488C24.0947 35.4479 23.7301 35.334 23.4697 35.207C23.2126 35.0768 23.0205 34.9189 22.8936 34.7334C22.7699 34.5479 22.708 34.3232 22.708 34.0596C22.708 33.6429 22.8822 33.2995 23.2305 33.0293C23.5788 32.7559 24.0247 32.6191 24.5684 32.6191C25.1576 32.6191 25.6296 32.7656 25.9844 33.0586C26.3424 33.3483 26.5215 33.7275 26.5215 34.1963H25.9355C25.9355 33.887 25.8053 33.6299 25.5449 33.4248C25.2878 33.2197 24.9622 33.1172 24.5684 33.1172C24.1842 33.1172 23.875 33.2035 23.6406 33.376C23.4095 33.5452 23.2939 33.7666 23.2939 34.04C23.2939 34.3037 23.39 34.5088 23.582 34.6553C23.7773 34.7985 24.1305 34.9303 24.6416 35.0508C25.1559 35.1712 25.54 35.2998 25.7939 35.4365C26.0511 35.5732 26.2415 35.7376 26.3652 35.9297C26.4889 36.1217 26.5508 36.3545 26.5508 36.6279C26.5508 37.0739 26.3701 37.4303 26.0088 37.6973C25.6507 37.9642 25.182 38.0977 24.6025 38.0977C23.9873 38.0977 23.4876 37.9495 23.1035 37.6533C22.7227 37.3538 22.5322 36.9762 22.5322 36.5205H23.1182C23.141 36.8623 23.2842 37.1292 23.5479 37.3213C23.8148 37.5101 24.1663 37.6045 24.6025 37.6045C25.0094 37.6045 25.3382 37.515 25.5889 37.3359C25.8395 37.1569 25.9648 36.9307 25.9648 36.6572ZM31.2041 38C31.1455 37.834 31.1081 37.5882 31.0918 37.2627C30.8867 37.5296 30.6247 37.7363 30.3057 37.8828C29.9899 38.026 29.6546 38.0977 29.2998 38.0977C28.792 38.0977 28.3802 37.9561 28.0645 37.6729C27.752 37.3896 27.5957 37.0316 27.5957 36.5986C27.5957 36.0843 27.8089 35.6774 28.2354 35.3779C28.665 35.0785 29.2624 34.9287 30.0273 34.9287H31.0869V34.3281C31.0869 33.9505 30.9697 33.6543 30.7354 33.4395C30.5042 33.2214 30.1657 33.1123 29.7197 33.1123C29.3128 33.1123 28.9759 33.2165 28.709 33.4248C28.4421 33.6331 28.3086 33.8838 28.3086 34.1768L27.7227 34.1719C27.7227 33.752 27.918 33.389 28.3086 33.083C28.6992 32.7738 29.1794 32.6191 29.749 32.6191C30.3382 32.6191 30.8021 32.7673 31.1406 33.0635C31.4824 33.3564 31.6582 33.7666 31.668 34.2939V36.7939C31.668 37.305 31.7217 37.6875 31.8291 37.9414V38H31.2041ZM29.3682 37.5801C29.7588 37.5801 30.1071 37.4857 30.4131 37.2969C30.7223 37.1081 30.9469 36.8558 31.0869 36.54V35.3779H30.042C29.4593 35.3844 29.0036 35.4919 28.6748 35.7002C28.346 35.9053 28.1816 36.1885 28.1816 36.5498C28.1816 36.846 28.2907 37.0918 28.5088 37.2871C28.7301 37.4824 29.0166 37.5801 29.3682 37.5801ZM37.4785 35.4121C37.4785 36.2357 37.2962 36.89 36.9316 37.375C36.5671 37.8568 36.0788 38.0977 35.4668 38.0977C34.7441 38.0977 34.1908 37.8438 33.8066 37.3359V40.0312H33.2256V32.7168H33.7676L33.7969 33.4639C34.1777 32.9007 34.7295 32.6191 35.4521 32.6191C36.0837 32.6191 36.5785 32.8584 36.9365 33.3369C37.2979 33.8154 37.4785 34.4795 37.4785 35.3291V35.4121ZM36.8926 35.3096C36.8926 34.6357 36.7542 34.1035 36.4775 33.7129C36.2008 33.3223 35.8151 33.127 35.3203 33.127C34.9622 33.127 34.6546 33.2132 34.3975 33.3857C34.1403 33.5583 33.9434 33.8089 33.8066 34.1377V36.6719C33.9466 36.9746 34.1468 37.2057 34.4072 37.3652C34.6676 37.5247 34.9753 37.6045 35.3301 37.6045C35.8216 37.6045 36.2041 37.4092 36.4775 37.0186C36.7542 36.6247 36.8926 36.055 36.8926 35.3096ZM43.0254 35.4121C43.0254 36.2357 42.8431 36.89 42.4785 37.375C42.1139 37.8568 41.6257 38.0977 41.0137 38.0977C40.291 38.0977 39.7376 37.8438 39.3535 37.3359V40.0312H38.7725V32.7168H39.3145L39.3438 33.4639C39.7246 32.9007 40.2764 32.6191 40.999 32.6191C41.6305 32.6191 42.1253 32.8584 42.4834 33.3369C42.8447 33.8154 43.0254 34.4795 43.0254 35.3291V35.4121ZM42.4395 35.3096C42.4395 34.6357 42.3011 34.1035 42.0244 33.7129C41.7477 33.3223 41.362 33.127 40.8672 33.127C40.5091 33.127 40.2015 33.2132 39.9443 33.3857C39.6872 33.5583 39.4902 33.8089 39.3535 34.1377V36.6719C39.4935 36.9746 39.6937 37.2057 39.9541 37.3652C40.2145 37.5247 40.5221 37.6045 40.877 37.6045C41.3685 37.6045 41.751 37.4092 42.0244 37.0186C42.3011 36.6247 42.4395 36.055 42.4395 35.3096Z" fill="#4F4F4F"/>
<path d="M22.0021 0C15.4058 0 10.0041 5.30645 10.0041 11.7864C10.0041 13.6998 10.5235 15.5877 11.4324 17.2715L10.0301 22.7055C9.95217 22.9351 10.0301 23.1902 10.2119 23.3433C10.3417 23.4708 10.5235 23.5474 10.7053 23.5474C10.7572 23.5474 10.8092 23.5474 10.8871 23.5219L16.4186 22.1442C18.1326 23.0371 20.0543 23.5474 22.0021 23.5474C28.5983 23.5474 34 18.2409 34 11.7609C34 5.28094 28.5983 0 22.0021 0Z" fill="#69E282"/>
<path d="M27.9996 14.7016V16.474C28.0003 16.6385 27.9659 16.8014 27.8986 16.9522C27.8313 17.1029 27.7325 17.2383 27.6087 17.3495C27.4849 17.4607 27.3387 17.5454 27.1795 17.5981C27.0203 17.6508 26.8517 17.6704 26.6843 17.6556C24.8277 17.4581 23.0443 16.8368 21.4773 15.8418C20.0195 14.9348 18.7836 13.7245 17.8572 12.297C16.8375 10.7557 16.2029 9.0009 16.0049 7.17473C15.9898 7.01135 16.0096 6.84669 16.0631 6.69123C16.1166 6.53577 16.2025 6.39291 16.3155 6.27176C16.4284 6.1506 16.5659 6.0538 16.7191 5.98752C16.8724 5.92124 17.038 5.88693 17.2056 5.88678H19.0156C19.3085 5.88395 19.5923 5.98549 19.8143 6.17245C20.0364 6.35941 20.1814 6.61905 20.2224 6.90296C20.2988 7.47017 20.4404 8.0271 20.6447 8.56312C20.7259 8.77458 20.7435 9.0044 20.6953 9.22534C20.6472 9.44628 20.5354 9.64909 20.3732 9.80972L19.6069 10.56C20.4658 12.0391 21.7165 13.2638 23.2271 14.1049L23.9933 13.3545C24.1574 13.1957 24.3645 13.0862 24.5901 13.0391C24.8158 12.992 25.0505 13.0092 25.2664 13.0887C25.8138 13.2887 26.3826 13.4274 26.9619 13.5022C27.2549 13.5427 27.5226 13.6873 27.714 13.9084C27.9053 14.1296 28.007 14.4118 27.9996 14.7016Z" fill="white"/>
</svg>
